…
We can see that there are 16 active teams in the Eastern conceference, 8
in the Atlantic division and 8 in the Metropolitan division. And there
are 15 active teams in the Western conference, 7 in the Central division
and 8 in the Pacific division.

As standings are determined by points, we will create numeric summaries
with the overall points by team, division, and conference.

    conferences <- getEndpoint("teams") %>% rename(teamId = id)
    points <- getEndpoint("franchise totals") %>% filter(gameTypeId == 2)
    conferencesPoints <- right_join(conferences, points, by = "teamId")
    conferencesPoints %>% group_by(name) %>% summarise(pointsEarned = points) %>% filter(!is.na(name))

    ## # A tibble: 31 x 2
    ## # Groups:   name [31]
    ##    name                  pointsEarned
    ##    <chr>                        <int>
    ##  1 Anaheim Ducks                 2224
    ##  2 Arizona Coyotes                434
    ##  3 Boston Bruins                 7391
    ##  4 Buffalo Sabres                4149
    ##  5 Calgary Flames                3360
    ##  6 Carolina Hurricanes           1834
    ##  7 Chicago Blackhawks            6556
    ##  8 Colorado Avalanche            2175
    ##  9 Columbus Blue Jackets         1500
    ## 10 Dallas Stars                  2395
    ## # ... with 21 more rows
…
We can see that the Montréal Canadiens have the most amount of points
earned over the entire history of the NHL at 7899. Also, the Atlantic
division and Eastern conferences have the largest amount of points. The
Canadiens belong to the Eastern conference and Atlantic division, so
this partly explains why that division and conference have the largest
amount of points.

Now that we have looked at points as a whole, we will look at the
average points per game in regular season by team, division, and
conference.

    conferencesPoints %>% mutate(avgPoints = points / gamesPlayed) %>% group_by(name) %>% summarise(avg = mean(avgPoints)) %>% filter(!is.na(name))

    ## # A tibble: 31 x 2
    ##    name                    avg
    ##    <chr>                 <dbl>
    ##  1 Anaheim Ducks         1.08 
    ##  2 Arizona Coyotes       0.904
    ##  3 Boston Bruins         1.12 
    ##  4 Buffalo Sabres        1.07 
    ##  5 Calgary Flames        1.08 
    ##  6 Carolina Hurricanes   1.04 
    ##  7 Chicago Blackhawks    1.01 
    ##  8 Colorado Avalanche    1.13 
    ##  9 Columbus Blue Jackets 0.992
    ## 10 Dallas Stars          1.17 
    ## # ... with 21 more rows
…
